{
  "id": "Adapter-incognito",
  "type": "Incognito",
  "properties": {
    "host": "localhost",
    "port": 443,
    "base_path": "/",
    "version": "",
    "cache_location": "none",
    "encode_pathvars": true,
    "encode_queryvars": true,
    "save_metric": false,
    "stub": true,
    "protocol": "https",
    "authentication": {
      "auth_method": "request_token",
      "username": "username",
      "password": "password",
      "token": "token",
      "token_timeout": 1800000,
      "token_cache": "local",
      "invalid_token_error": 401,
      "auth_field": "header.headers.Authorization",
      "auth_field_format": "IncognitoUms auth={token}",
      "auth_logging": false,
      "client_id": "",
      "client_secret": "",
      "grant_type": ""
    },
    "healthcheck": {
      "type": "intermittent",
      "frequency": 60000,
      "query_object": {}
    },
    "throttle": {
      "throttle_enabled": false,
      "number_pronghorns": 1,
      "sync_async": "sync",
      "max_in_queue": 1000,
      "concurrent_max": 1,
      "expire_timeout": 0,
      "avg_runtime": 200,
      "priorities": [
        {
          "value": 0,
          "percent": 100
        }
      ]
    },
    "request": {
      "number_redirects": 0,
      "number_retries": 3,
      "limit_retry_error": [
        0
      ],
      "failover_codes": [],
      "attempt_timeout": 5000,
      "global_request": {
        "payload": {},
        "uriOptions": {},
        "addlHeaders": {},
        "authData": {}
      },
      "healthcheck_on_timeout": true,
      "return_raw": false,
      "archiving": false,
      "return_request": false
    },
    "proxy": {
      "enabled": false,
      "host": "",
      "port": 1,
      "protocol": "http",
      "username": "",
      "password": ""
    },
    "ssl": {
      "ecdhCurve": "",
      "enabled": false,
      "accept_invalid_cert": false,
      "ca_file": "",
      "key_file": "",
      "cert_file": "",
      "secure_protocol": "",
      "ciphers": ""
    },
    "mongo": {
      "host": "",
      "port": 0,
      "database": "",
      "username": "",
      "password": "",
      "replSet": "",
      "db_ssl": {
        "enabled": false,
        "accept_invalid_cert": false,
        "ca_file": "",
        "key_file": "",
        "cert_file": ""
      }
    },
    "devicebroker": {
      "getDevice": [
        {
          "path": "/get/devices/{id}",
          "method": "GET",
          "query": {},
          "body": {},
          "headers": {},
          "handleFailure": "ignore",
          "requestFields": {
            "id": "name"
          },
          "responseDatakey": "",
          "responseFields": {
            "name": "host",
            "ostype": "os",
            "ostypePrefix": "system-",
            "ipaddress": "attributes.ipaddr",
            "port": "443"
          }
        }
      ],
      "getDevicesFiltered": [
        {
          "path": "/get/devices",
          "method": "GET",
          "query": {},
          "body": {},
          "headers": {},
          "handleFailure": "ignore",
          "requestFields": {},
          "responseDatakey": "",
          "responseFields": {
            "name": "host",
            "ostype": "os",
            "ostypePrefix": "system-",
            "ipaddress": "attributes.ipaddr",
            "port": "443"
          }
        }
      ],
      "isAlive": [
        {
          "path": "/get/devices/{id}/status",
          "method": "GET",
          "query": {},
          "body": {},
          "headers": {},
          "handleFailure": "ignore",
          "requestFields": {
            "id": "name"
          },
          "responseDatakey": "",
          "responseFields": {
            "status": "status",
            "statusValue": "online"
          }
        }
      ],
      "getConfig": [
        {
          "path": "/get/devices/{id}/configPart1",
          "method": "GET",
          "query": {},
          "body": {},
          "headers": {},
          "handleFailure": "ignore",
          "requestFields": {
            "id": "name"
          },
          "responseDatakey": "",
          "responseFields": {}
        }
      ],
      "getCount": [
        {
          "path": "/get/devices",
          "method": "GET",
          "query": {},
          "body": {},
          "headers": {},
          "handleFailure": "ignore",
          "requestFields": {},
          "responseDatakey": "",
          "responseFields": {}
        }
      ]
    }
  },
  "groups": [],
  "brokers": [],
  "logLevel": "none",
  "timeout": 120000
}